{
  "WooCommerce": {
    "url": "http://ecommerce.groceryesoft.com",
    "consumerKey": "ck_b7594bc4391db4b56c635fe6da1072a53ca4535a",
    "consumerSecret": "cs_980b9edb120e15bd2a8b668cacc734f7eca0ba40"
  },
  "HorizonLayout": [
    {
      "layout": "circleCategory"
    },
    {
      "layout": "bannerHigh",
      "tag": 273
    },
    {
      "imageBanner": "https://user-images.githubusercontent.com/1459805/60091808-a19b8a00-976f-11e9-9cc7-576ca05c2442.png",
      "layout": "bannerImage",
      "category": 18
    },
    {
      "name": "featureProducts",
      "image": "",
      "layout": "threeColumn",
      "category": 26
    },
    {
      "name": "manCollections",
      "layout": "twoColumn",
      "category": 21
    }
  ],
  "MainColor": "#3FC1BE"
}